[
  {
    "type": " ",
    "url": "{code:'에러코드',message:'에러메시지'}",
    "title": "00. 공통 에러 코드",
    "description": "<p>Admin API 공통 에러 코드 <br/></p>",
    "version": "1.0.0",
    "name": "adminApiError",
    "group": "1._Admin_API",
    "error": {
      "fields": {
        "Error": [
          {
            "group": "Error",
            "type": "401",
            "optional": false,
            "field": "admin-api-0100",
            "description": "<p>로그인 필요</p>"
          },
          {
            "group": "Error",
            "type": "500",
            "optional": false,
            "field": "admin-api-9999",
            "description": "<p>기타 서버 에러</p>"
          },
          {
            "group": "Error",
            "type": "400",
            "optional": false,
            "field": "admin-api-9900",
            "description": "<p>기타 잘못된 요청</p>"
          }
        ]
      },
      "examples": [
        {
          "title": "LOGIN_REQUIRED",
          "content": "HTTP/1.1 401\n{\n    \"code\": \"admin-api-0100\",\n    \"message\": \"Login is required.\"\n}",
          "type": "json"
        },
        {
          "title": "SERVER_ERROR",
          "content": "HTTP/1.1 500\n{\n    \"code\": \"admin-api-9999\",\n    \"message\": \"Internal Server Error.\"\n}",
          "type": "json"
        },
        {
          "title": "BAD_REQUEST",
          "content": "HTTP/1.1 400\n{\n    \"code\": \"admin-api-9900\",\n    \"message\": \"Bad Request.\"\n}",
          "type": "json"
        }
      ]
    },
    "filename": "src/1_admin-api/00_error.js",
    "groupTitle": "1._Admin_API"
  },
  {
    "type": "get",
    "url": "/admin/v1/users/{id}",
    "title": "02. 회원 기본정보 조회",
    "description": "<p>회원관리 &gt; 회원 목록 조회 &gt; 기본 탭</p>",
    "version": "1.0.0",
    "name": "admin_getUser",
    "group": "1._Admin_API",
    "examples": [
      {
        "title": "REQUEST",
        "content": "curl -i -X GET 'http://localhost:8080/admin/v1/users/14011'",
        "type": "curl"
      }
    ],
    "parameter": {
      "fields": {
        "Path": [
          {
            "group": "Path",
            "type": "Number",
            "optional": false,
            "field": "id",
            "description": "<p>회원 식별키</p>"
          }
        ]
      }
    },
    "success": {
      "fields": {
        "Success 200": [
          {
            "group": "Success 200",
            "type": "Number",
            "optional": false,
            "field": "id",
            "description": "<p>회원 식별키</p>"
          },
          {
            "group": "Success 200",
            "type": "String",
            "optional": false,
            "field": "name",
            "description": "<p>이름</p>"
          },
          {
            "group": "Success 200",
            "type": "String",
            "optional": false,
            "field": "uid",
            "description": "<p>고유 아이디 (이름 옆에 표시)</p>"
          },
          {
            "group": "Success 200",
            "type": "String",
            "optional": true,
            "field": "firstNameEn",
            "description": "<p>영문 이름</p>"
          },
          {
            "group": "Success 200",
            "type": "String",
            "optional": true,
            "field": "lastNameEn",
            "description": "<p>영문 성</p>"
          },
          {
            "group": "Success 200",
            "type": "String",
            "optional": true,
            "field": "nickname",
            "description": "<p>닉네임</p>"
          },
          {
            "group": "Success 200",
            "type": "String",
            "optional": true,
            "field": "textbook",
            "description": "<p>교재</p>"
          },
          {
            "group": "Success 200",
            "type": "String",
            "optional": false,
            "field": "loginId",
            "description": "<p>아이디</p>"
          },
          {
            "group": "Success 200",
            "type": "String",
            "optional": false,
            "field": "email",
            "description": "<p>이메일</p>"
          },
          {
            "group": "Success 200",
            "type": "Boolean",
            "optional": false,
            "field": "isReceiveEmail",
            "description": "<p>이메일 수신 여부</p>"
          },
          {
            "group": "Success 200",
            "type": "String",
            "optional": false,
            "field": "gender",
            "description": "<p>성별 (M:남, F:여)</p>"
          },
          {
            "group": "Success 200",
            "type": "String",
            "optional": true,
            "field": "phone",
            "description": "<p>유선전화</p>"
          },
          {
            "group": "Success 200",
            "type": "String",
            "optional": true,
            "field": "phoneType",
            "description": "<p>유선전화 구분 (H:자택, C:직장)</p>"
          },
          {
            "group": "Success 200",
            "type": "String",
            "optional": false,
            "field": "cellPhone",
            "description": "<p>휴대전화</p>"
          },
          {
            "group": "Success 200",
            "type": "Boolean",
            "optional": false,
            "field": "isReceiveSms",
            "description": "<p>SMS 수신 여부</p>"
          },
          {
            "group": "Success 200",
            "type": "Boolean",
            "optional": false,
            "field": "isOfficeWorker",
            "description": "<p>직장인 여부</p>"
          },
          {
            "group": "Success 200",
            "type": "String",
            "optional": true,
            "field": "company",
            "description": "<p>직장/학교</p>"
          },
          {
            "group": "Success 200",
            "type": "String",
            "optional": true,
            "field": "position",
            "description": "<p>직책/학과</p>"
          },
          {
            "group": "Success 200",
            "type": "String",
            "optional": true,
            "field": "note",
            "description": "<p>특이사항</p>"
          },
          {
            "group": "Success 200",
            "type": "String",
            "optional": false,
            "field": "createDateTime",
            "description": "<p>등록일</p>"
          },
          {
            "group": "Success 200",
            "type": "Boolean",
            "optional": false,
            "field": "isActive",
            "description": "<p>상태 (활동 여부)</p>"
          },
          {
            "group": "Success 200",
            "type": "String",
            "optional": true,
            "field": "zipcode",
            "description": "<p>우편번호</p>"
          },
          {
            "group": "Success 200",
            "type": "String",
            "optional": true,
            "field": "address",
            "description": "<p>주소</p>"
          },
          {
            "group": "Success 200",
            "type": "String",
            "optional": true,
            "field": "detailedAddress",
            "description": "<p>상세주소</p>"
          },
          {
            "group": "Success 200",
            "type": "String",
            "optional": true,
            "field": "addressType",
            "description": "<p>주소 구분 (H:자택, C:직장)</p>"
          },
          {
            "group": "Success 200",
            "type": "String",
            "optional": true,
            "field": "joinPath",
            "description": "<p>가입 경로 (SIGN:간판, ONLINE:온라인검색, RECOMMEND:지인추천, FAN:부채, LEAFLET:3단리플릿, SUBWAY:지하철광고, ALLIANCE:기업제휴, ETC:기타)</p>"
          },
          {
            "group": "Success 200",
            "type": "String[]",
            "optional": false,
            "field": "languages",
            "description": "<p>학습 희망 언어 목록 (EN:영어, CN:중국어, JP:일본어, KR:한국어, ETC:기타)</p>"
          },
          {
            "group": "Success 200",
            "type": "String",
            "optional": true,
            "field": "etcLanguage",
            "description": "<p>기타 학습 희망 언어</p>"
          },
          {
            "group": "Success 200",
            "type": "Object[]",
            "optional": false,
            "field": "languageSkills",
            "description": "<p>외국어 실력 목록</p>"
          },
          {
            "group": "Success 200",
            "type": "String",
            "optional": false,
            "field": "languageSkills.languageTest",
            "description": "<p>외국어 시험 (SJPT:SJPT, HKC:HKC, TOEIC:TOEIC, TSC:TSC, TOEIC_S:TOEIC-S, OPIC:OPIc, ETC:기타)</p>"
          },
          {
            "group": "Success 200",
            "type": "String",
            "optional": true,
            "field": "languageSkills.score",
            "description": "<p>점수</p>"
          },
          {
            "group": "Success 200",
            "type": "String",
            "optional": true,
            "field": "foreignCountry",
            "description": "<p>외국 거주 경험 국가명</p>"
          },
          {
            "group": "Success 200",
            "type": "String",
            "optional": true,
            "field": "foreignPeriod",
            "description": "<p>외국 거주 경험 기간</p>"
          },
          {
            "group": "Success 200",
            "type": "String",
            "optional": true,
            "field": "foreignPurpose",
            "description": "<p>외국 거주 경험 목적</p>"
          },
          {
            "group": "Success 200",
            "type": "String[]",
            "optional": false,
            "field": "coursePurposes",
            "description": "<p>수강 목적 목록 (STUDY_ABROAD:유학, TEST:시험, EMPLOYMENT:취업, WORK:업무, DEVELOPMENT:자기개발)</p>"
          }
        ]
      },
      "examples": [
        {
          "title": "SUCCESS",
          "content": "HTTP/1.1 200\n{\n    \"id\": 14011,\n    \"name\": \"RE:김미경\",\n    \"uid\": \"rosyeos\",\n    \"firstNameEn\": \"Mikyung\",\n    \"lastNameEn\": \"Kim\",\n    \"nickname\": \"Cathy Kim\",\n    \"textbook\": \"SPEAK YOUR MIND 1\",\n    \"loginId\": \"mkkim@eosi.kr\",\n    \"email\": \"mkkim@eosi.kr\",\n    \"isReceiveEmail\": false,\n    \"gender\": \"F\",\n    \"phone\": \"\",\n    \"phoneType\": \"H\",\n    \"cellPhone\": \"fCH710Q/N+d9L7co4axhXQ==\",\n    \"isReceiveSms\": true,\n    \"isOfficeWorker\": false,\n    \"company\": \"대표이사, 고문님지인\",\n    \"position\": \"\",\n    \"note\": \"▣ 고정예약자 : 11월>월/수 오후 8시 랜덤 원어민 PT (원어민 선생님 수업 선호하심/Erin,Alex선호)  LDF 메일발송 필요 X 16보7060  47거5732 33조 8332 39마3200\",\n    \"createDateTime\": \"2007-04-03T00:00:00\",\n    \"isActive\": true,\n    \"zipcode\": \"152-848\",\n    \"address\": \"서울 구로구 구로3동\",\n    \"detailedAddress\": \"184-1 우림e-Biz2차 202호\",\n    \"addressType\": \"H\",\n    \"joinPath\": \"LEAFLET\",\n    \"languages\": [\n        \"EN\"\n    ],\n    \"languageSkills\": [\n        {\n            \"languageTest\": \"SJPT\",\n            \"score\": null\n        },\n        {\n            \"languageTest\": \"HKC\",\n            \"score\": null\n        },\n        {\n            \"languageTest\": \"TOEIC\",\n            \"score\": null\n        },\n        {\n            \"languageTest\": \"TSC\",\n            \"score\": null\n        },\n        {\n            \"languageTest\": \"ETC\",\n            \"score\": null\n        },\n        {\n            \"languageTest\": \"TOEIC_S\",\n            \"score\": null\n        },\n        {\n            \"languageTest\": \"OPIC\",\n            \"score\": null\n        }\n    ],\n    \"foreignCountry\": \"\",\n    \"foreignPeriod\": \"\",\n    \"foreignPurpose\": \"\",\n    \"coursePurposes\": [\n        \"WORK\",\n        \"DEVELOPMENT\"\n    ]\n}",
          "type": "json"
        }
      ]
    },
    "error": {
      "fields": {
        "Error": [
          {
            "group": "Error",
            "type": "404",
            "optional": false,
            "field": "admin-api-0200",
            "description": "<p>USER_NOT_FOUND</p>"
          }
        ]
      },
      "examples": [
        {
          "title": "USER_NOT_FOUND",
          "content": "HTTP/1.1 404\n{\n    \"code\": \"admin-api-0200\",\n    \"message\": \"사용자를 찾을 수 없습니다.\"\n}",
          "type": "json"
        }
      ]
    },
    "filename": "src/1_admin-api/01_user/02_get_user.js",
    "groupTitle": "1._Admin_API"
  },
  {
    "type": "get",
    "url": "/admin/v1/users",
    "title": "01. 회원 목록 조회",
    "description": "<p>회원관리 &gt; 회원 목록 조회<br/> 모든 파라미터는 안넘기면 전체임</p>",
    "version": "1.0.0",
    "name": "admin_getUsers",
    "group": "1._Admin_API",
    "examples": [
      {
        "title": "REQUEST",
        "content": "curl -i -X GET 'http://localhost:8080/admin/v1/users'",
        "type": "curl"
      }
    ],
    "parameter": {
      "fields": {
        "Query": [
          {
            "group": "Query",
            "optional": true,
            "field": "createDateFrom",
            "description": "<p>가입일자 검색 ~부터 (yyyy-mm-dd)</p>"
          },
          {
            "group": "Query",
            "optional": true,
            "field": "createDateTo",
            "description": "<p>가입일자 검색 ~까지 (yyyy-mm-dd)</p>"
          },
          {
            "group": "Query",
            "optional": true,
            "field": "isRegistered",
            "description": "<p>등록구분 (true: 등록회원, false: 미등록회원)</p>"
          },
          {
            "group": "Query",
            "optional": true,
            "field": "isActive",
            "description": "<p>상태 (true: 활동, false: 비활동)</p>"
          },
          {
            "group": "Query",
            "optional": true,
            "field": "isExpired",
            "description": "<p>만료구분 (true: 만료됨, false: 만료안됨)</p>"
          },
          {
            "group": "Query",
            "optional": true,
            "field": "isRemaining",
            "description": "<p>잔여구분 (true: 잔여있음, false: 잔여없음)</p>"
          },
          {
            "group": "Query",
            "optional": true,
            "field": "limit",
            "description": "<p>한페이지에 보여줄 회원 수</p>"
          },
          {
            "group": "Query",
            "optional": true,
            "field": "search",
            "description": "<p>검색 선택 (name: 이름, loginId: 아이디, email: 이메일, company: 회사/직장명, phone: 전화번호, cellPhone: 휴대전화번호)</p>"
          },
          {
            "group": "Query",
            "optional": true,
            "field": "keyword",
            "description": "<p>검색어</p>"
          },
          {
            "group": "Query",
            "optional": true,
            "field": "page",
            "description": "<p>조회할 페이지</p>"
          },
          {
            "group": "Query",
            "optional": true,
            "field": "order",
            "description": "<p>정렬 선택</p>"
          },
          {
            "group": "Query",
            "optional": true,
            "field": "direction",
            "description": "<p>정렬 방향 (ASD: 오름차순, DESC: 내림차순)</p>"
          },
          {
            "group": "Query",
            "optional": true,
            "field": "TBD",
            "description": "<p>등록구분, 담당강사, 수강상태 확인필요</p>"
          }
        ]
      }
    },
    "success": {
      "fields": {
        "Success 200": [
          {
            "group": "Success 200",
            "type": "Object[]",
            "optional": false,
            "field": "list",
            "description": "<p>회원 목록</p>"
          },
          {
            "group": "Success 200",
            "type": "Number",
            "optional": false,
            "field": "list.id",
            "description": "<p>회원 식별키</p>"
          },
          {
            "group": "Success 200",
            "type": "String",
            "optional": false,
            "field": "list.name",
            "description": "<p>이름</p>"
          },
          {
            "group": "Success 200",
            "type": "String",
            "optional": false,
            "field": "list.createDate",
            "description": "<p>가입일</p>"
          },
          {
            "group": "Success 200",
            "type": "String",
            "optional": false,
            "field": "list.cellPhone",
            "description": "<p>휴대전화번호</p>"
          },
          {
            "group": "Success 200",
            "type": "String",
            "optional": false,
            "field": "list.email",
            "description": "<p>이메일</p>"
          },
          {
            "group": "Success 200",
            "type": "String",
            "optional": true,
            "field": "list.company",
            "description": "<p>회사/직장명</p>"
          },
          {
            "group": "Success 200",
            "type": "String",
            "optional": true,
            "field": "list.expirationDate",
            "description": "<p>만료일</p>"
          },
          {
            "group": "Success 200",
            "type": "Number",
            "optional": false,
            "field": "list.remainingCount",
            "description": "<p>잔여횟수</p>"
          },
          {
            "group": "Success 200",
            "type": "Number",
            "optional": false,
            "field": "totalCount",
            "description": "<p>전체 회원 수</p>"
          },
          {
            "group": "Success 200",
            "type": "Number",
            "optional": false,
            "field": "page",
            "description": "<p>현재 페이지</p>"
          },
          {
            "group": "Success 200",
            "type": "Number",
            "optional": false,
            "field": "limit",
            "description": "<p>한페이지에 보여줄 회원 수</p>"
          },
          {
            "group": "Success 200",
            "type": "Number",
            "optional": false,
            "field": "totalPage",
            "description": "<p>전체 페이지 수</p>"
          },
          {
            "group": "Success 200",
            "type": "Number",
            "optional": false,
            "field": "startPage",
            "description": "<p>페이징 영역에 노출될 첫 페이지</p>"
          },
          {
            "group": "Success 200",
            "type": "Number",
            "optional": false,
            "field": "endPage",
            "description": "<p>페이징 영역에 노출될 마지막 페이지</p>"
          },
          {
            "group": "Success 200",
            "type": "Boolean",
            "optional": false,
            "field": "hasPrev",
            "description": "<p>전 페이징 영역 존재 여부</p>"
          },
          {
            "group": "Success 200",
            "type": "Boolean",
            "optional": false,
            "field": "hasNext",
            "description": "<p>다음 페이징 영역 존재 여부</p>"
          },
          {
            "group": "Success 200",
            "type": "Boolean",
            "optional": false,
            "field": "isFirst",
            "description": "<p>첫 페이징 영역 여부</p>"
          },
          {
            "group": "Success 200",
            "type": "Boolean",
            "optional": false,
            "field": "isLast",
            "description": "<p>마지막 페이징 영역 여부</p>"
          }
        ]
      },
      "examples": [
        {
          "title": "SUCCESS",
          "content": "HTTP/1.1 200\n{\n    \"list\": [\n        {\n            \"id\": 9049,\n            \"name\": \"황순안\",\n            \"email\": \"1028151@naver.com\",\n            \"cellPhone\": \"gOI7YKz4khanfsIk9Wc/Wg==\",\n            \"company\": \"필립스\",\n            \"createDate\": \"2007-03-10\"\n        },\n        {\n            \"id\": 9048,\n            \"name\": \"trial\",\n            \"email\": \"\",\n            \"cellPhone\": \"\",\n            \"company\": \"\",\n            \"createDate\": \"2007-03-12\"\n        },\n        {\n            \"id\": 9047,\n            \"name\": \"신혜정(6)\",\n            \"email\": \"Jung81@hanmail.net\",\n            \"cellPhone\": \"ir6AWdZaG3cyl7iaLn/vWA==\",\n            \"company\": \"\",\n            \"createDate\": \"2007-03-14\"\n        },\n        {\n            \"id\": 9046,\n            \"name\": \"이경란(6)\",\n            \"email\": \"1028238@naver.com\",\n            \"cellPhone\": \"bzsxKc8rSfi0SYlKEK4V6g==\",\n            \"company\": \"\",\n            \"createDate\": \"2007-03-14\"\n        },\n        {\n            \"id\": 9045,\n            \"name\": \"이영진(6)\",\n            \"email\": \"1028792@naver.com\",\n            \"cellPhone\": \"AH7uYqBQ9U4QqYCICnQrLw==\",\n            \"company\": \"(주)이원이앤씨\",\n            \"createDate\": \"2007-04-13\"\n        },\n        {\n            \"id\": 9044,\n            \"name\": \"함형택\",\n            \"email\": \"1029034@naver.com\",\n            \"cellPhone\": \"AToyr1ia+3AnDeBFeCY/TQ==\",\n            \"company\": \"\",\n            \"createDate\": \"2007-04-27\"\n        },\n        {\n            \"id\": 9043,\n            \"name\": \"신용다\",\n            \"email\": \"1029325@naver.com\",\n            \"cellPhone\": \"OTglatIm5cwqIVr6O78A7g==\",\n            \"company\": \"대한공인중개사무소\",\n            \"createDate\": \"2007-05-11\"\n        },\n        {\n            \"id\": 9042,\n            \"name\": \"노하형(6)\",\n            \"email\": \"1029458@naver.com\",\n            \"cellPhone\": \"PGRRhMsscaV0lUxnhBEmcg==\",\n            \"company\": \"\",\n            \"createDate\": \"2007-05-21\"\n        },\n        {\n            \"id\": 9041,\n            \"name\": \"이영재(6)\",\n            \"email\": \"hanilceo@hanilworld.com\",\n            \"cellPhone\": \"Vi9mlIAjWtm05JWVKNlRqA==\",\n            \"company\": \"한일월드(주)\",\n            \"createDate\": \"2007-05-25\"\n        },\n        {\n            \"id\": 9040,\n            \"name\": \"문경하\",\n            \"email\": \"biomoon88@naver.com\",\n            \"cellPhone\": \"AXAzEvHSnhNUdZbhAS/Ckg==\",\n            \"company\": \"\",\n            \"createDate\": \"2007-05-29\"\n        }\n    ],\n    \"totalCount\": 4899,\n    \"page\": 1,\n    \"limit\": 10,\n    \"pageSize\": 10,\n    \"startPage\": 1,\n    \"totalPage\": 490,\n    \"endPage\": 10,\n    \"hasNext\": true,\n    \"hasPrev\": false,\n    \"isFirst\": true,\n    \"isLast\": false\n}",
          "type": "json"
        }
      ]
    },
    "filename": "src/1_admin-api/01_user/01_get_users.js",
    "groupTitle": "1._Admin_API"
  }
]
